Remove regex pattern from variable labels — remove_label_parts • saros
…
replacement
String, replacement for pattern.

data_type_criterion
Can be a function that specifies what kind of variables to select, e.g. is.factor

    Value

Data

    Examples

remove_label_parts(ex_survey, pattern = " living in")
#> # A tibble: 300 × 32
#>    x1_sex  x2_human     x3_nationality a_1   a_2   a_3   a_4   a_5   a_6   a_7  
#>    <fct>   <fct>        <fct>          <fct> <fct> <fct> <fct> <fct> <fct> <fct>
#>  1 Males   Definitely … Eswatini       Yes   Yes   Yes   No    Yes   Yes   Yes  
#>  2 Females Robot?       Denmark        NA    Yes   No    Yes   Yes   No    No   
#>  3 Males   Robot?       Fiji           No    No    Yes   No    No    Yes   Yes  
#>  4 Females Robot?       Eswatini       No    No    No    No    No    No    Yes  
#>  5 Males   Robot?       Cameroon       Yes   No    Yes   No    No    No    No   
#>  6 Males   Definitely … Andorra        No    Yes   No    No    No    Yes   No   
#>  7 Females Definitely … Ghana          No    Yes   No    Yes   Yes   NA    No   
#>  8 Females Definitely … Belize         Yes   No    Yes   Yes   Yes   Yes   Yes  
#>  9 Females Robot?       Belize         No    Yes   Yes   Yes   NA    Yes   No   
#> 10 Males   Definitely … Ghana          No    Yes   Yes   Yes   NA    Yes   No   
#> # ℹ 290 more rows
#> # ℹ 22 more variables: a_8 <fct>, a_9 <fct>, b_1 <fct>, b_2 <fct>, b_3 <fct>,
#> #   c_1 <dbl>, c_2 <dbl>, d_1 <fct>, d_2 <fct>, d_3 <fct>, d_4 <fct>,
#> #   e_1 <fct>, e_2 <fct>, e_3 <fct>, e_4 <fct>, p_1 <fct>, p_2 <fct>,
#> #   p_3 <fct>, p_4 <fct>, f_uni <chr>, open_comments <chr>, resp_status <int>
…
